-------------------------------------------------------------------------------
Test set: com.training.serverless.ServerLessApplicationTests
-------------------------------------------------------------------------------
Tests run: 1, Failures: 0, Errors: 0, Skipped: 0, Time elapsed: 22.605 s - in com.training.serverless.ServerLessApplicationTests
